{"response":{"status":"ok","userTier":"developer","total":2120567,"startIndex":1,"pageSize":10,"currentPage":1,"pages":212057,"orderBy":"newest","results":[

{"id":"tv-and-radio/2019/jun/16/lena-headey-cersei-death-game-of-thrones-the-flood-interview",
"type":"article",
"sectionId":"tv-and-radio",
"sectionName":"Television & radio",
"webPublicationDate":"2019-06-16T08:30:45Z",
"webTitle":"Lena Headey: ‘I wanted a better death for Cersei’",
"webUrl":"https://www.theguardian.com/tv-and-radio/2019/jun/16/lena-headey-cersei-death-game-of-thrones-the-flood-interview",
"apiUrl":"https://content.guardianapis.com/tv-and-radio/2019/jun/16/lena-headey-cersei-death-game-of-thrones-the-flood-interview",
"isHosted":false,
"pillarId":"pillar/arts",
"pillarName":"Arts"},

{"id":"sport/live/2019/jun/16/sportwatch-sea-eagles-v-dragons-north-melbourne-v-gws-swifts-v-giants-live",
"type":"liveblog",
"sectionId":"sport",
"sectionName":"Sport",
"webPublicationDate":"2019-06-16T08:23:19Z",
"webTitle":"Sportwatch: Wins for Roosters, Sea Eagles, Vixens, Swifts and Giants – as it happened",
"webUrl":"https://www.theguardian.com/sport/live/2019/jun/16/sportwatch-sea-eagles-v-dragons-north-melbourne-v-gws-swifts-v-giants-live",
"apiUrl":"https://content.guardianapis.com/sport/live/2019/jun/16/sportwatch-sea-eagles-v-dragons-north-melbourne-v-gws-swifts-v-giants-live",
"isHosted":false,
"pillarId":"pillar/sport",
"pillarName":"Sport"},

{"id":"lifeandstyle/2019/jun/16/being-a-new-father-is-all-consuming-but-does-that-make-me-a-real-dad-seamas-oreilly",
"type":"article",
"sectionId":"lifeandstyle",
"sectionName":"Life and style",
"webPublicationDate":"2019-06-16T08:00:50Z",
"webTitle":"Being a new father is all-consuming – but does that make me a real dad? | Séamas O’Reilly",
"webUrl":"https://www.theguardian.com/lifeandstyle/2019/jun/16/being-a-new-father-is-all-consuming-but-does-that-make-me-a-real-dad-seamas-oreilly",
"apiUrl":"https://content.guardianapis.com/lifeandstyle/2019/jun/16/being-a-new-father-is-all-consuming-but-does-that-make-me-a-real-dad-seamas-oreilly",
"isHosted":false,
"pillarId":"pillar/lifestyle",
"pillarName":"Lifestyle"},

{"id":"community/2019/jun/16/your-pictures-share-your-photos-on-the-theme-of-plastic","type":"article",
"sectionId":"community",
"sectionName":"Community",
"webPublicationDate":"2019-06-16T08:00:49Z",
"webTitle":"Your pictures: share your photos on the theme of ‘plastic'",
"webUrl":"https://www.theguardian.com/community/2019/jun/16/your-pictures-share-your-photos-on-the-theme-of-plastic",
"apiUrl":"https://content.guardianapis.com/community/2019/jun/16/your-pictures-share-your-photos-on-the-theme-of-plastic",
"isHosted":false,
"pillarId":"pillar/news",
"pillarName":"News"},

{"id":"commentisfree/2019/jun/16/how-to-follow-the-maybot-a-droid-pm",
"type":"article",
"sectionId":"commentisfree",
"sectionName":"Opinion",
"webPublicationDate":"2019-06-16T08:00:48Z",
"webTitle":"How to follow the Maybot? A droid PM | David Mitchell",
"webUrl":"https://www.theguardian.com/commentisfree/2019/jun/16/how-to-follow-the-maybot-a-droid-pm",
"apiUrl":"https://content.guardianapis.com/commentisfree/2019/jun/16/how-to-follow-the-maybot-a-droid-pm",
"isHosted":false,
"pillarId":"pillar/opinion",
"pillarName":"Opinion"},

{"id":"society/2019/jun/16/rape-case-dropped-too-articulate-prosecution-policy-fears-grow",
"type":"article",
"sectionId":"society",
"sectionName":"Society",
"webPublicationDate":"2019-06-16T08:00:46Z",
"webTitle":"‘My rape case was dropped because I was too articulate’",
"webUrl":"https://www.theguardian.com/society/2019/jun/16/rape-case-dropped-too-articulate-prosecution-policy-fears-grow",
"apiUrl":"https://content.guardianapis.com/society/2019/jun/16/rape-case-dropped-too-articulate-prosecution-policy-fears-grow",
"isHosted":false,
"pillarId":"pillar/news",
"pillarName":"News"},

{"id":"books/2019/jun/16/10-minutes-38-seconds-in-this-strange-world-by-elif-shafak-book-review",
"type":"article",
"sectionId":"books",
"sectionName":"Books",
"webPublicationDate":"2019-06-16T08:00:46Z",
"webTitle":"10 Minutes 38 Seconds in This Strange World by Elif Shafak review – powerful but preachy",
"webUrl":"https://www.theguardian.com/books/2019/jun/16/10-minutes-38-seconds-in-this-strange-world-by-elif-shafak-book-review",
"apiUrl":"https://content.guardianapis.com/books/2019/jun/16/10-minutes-38-seconds-in-this-strange-world-by-elif-shafak-book-review",
"isHosted":false,
"pillarId":"pillar/arts",
"pillarName":"Arts"},

{"id":"commentisfree/2019/jun/16/hong-kong-not-china-yet-but-feared-grim-day-coming-ever-nearer",
"type":"article",
"sectionId":"commentisfree",
"sectionName":"Opinion",
"webPublicationDate":"2019-06-16T08:00:44Z",
"webTitle":"Hong Kong is not China yet, but that feared day is coming ever nearer | Louisa Lim",
"webUrl":"https://www.theguardian.com/commentisfree/2019/jun/16/hong-kong-not-china-yet-but-feared-grim-day-coming-ever-nearer",
"apiUrl":"https://content.guardianapis.com/commentisfree/2019/jun/16/hong-kong-not-china-yet-but-feared-grim-day-coming-ever-nearer",
"isHosted":false,
"pillarId":"pillar/opinion",
"pillarName":"Opinion"},

{"id":"politics/2019/jun/16/jeremy-corbyn-faces-revolt-second-eu-referendum",
"type":"article",
"sectionId":"politics",
"sectionName":"Politics",
"webPublicationDate":"2019-06-16T08:00:44Z",
"webTitle":"Grassroots and shadow cabinet add to pressure on Corbyn over Brexit",
"webUrl":"https://www.theguardian.com/politics/2019/jun/16/jeremy-corbyn-faces-revolt-second-eu-referendum",
"apiUrl":"https://content.guardianapis.com/politics/2019/jun/16/jeremy-corbyn-faces-revolt-second-eu-referendum",
"isHosted":false,
"pillarId":"pillar/news",
"pillarName":"News"},

{"id":"environment/2019/jun/16/chernobyl-was-even-worse-than-tv-series-kim-willsher",
"type":"article",
"sectionId":"environment",
"sectionName":"Environment",
"webPublicationDate":"2019-06-16T08:00:44Z",
"webTitle":"The truth about Chernobyl? I saw it with my own eyes…",
"webUrl":"https://www.theguardian.com/environment/2019/jun/16/chernobyl-was-even-worse-than-tv-series-kim-willsher",
"apiUrl":"https://content.guardianapis.com/environment/2019/jun/16/chernobyl-was-even-worse-than-tv-series-kim-willsher",
"isHosted":false,
"pillarId":"pillar/news",
"pillarName":"News"}]}}
